{
  "credentials": [
    {
      "name": "IeatCluster",
      "keys": [
        {
          "name": "ChefOrganizationPrivateKey"
        },
        {
          "name": "ChefUserPrivateKey"
        },
        {
          "name": "ProviderUserName"
        },
        {
          "name": "ProviderUserPassword"
        },
        {
          "name": "ProviderUserPrivateKey"
        }
      ]
    },
    {
      "name": "Amazon",
      "keys": [
        {
          "name": "C1"
        },
        {
          "name": "C2"
        },
        {
          "name": "C3"
        }
      ]
    },
    {
      "name": "Rackspace",
      "keys": [
        {
          "name": "ChefOrganizationPrivateKey"
        },
        {
          "name": "ChefUserPrivateKey"
        },
        {
          "name": "ProviderUserName"
        },
        {
          "name": "ProviderUserPassword"
        },
        {
          "name": "ProviderUserPrivateKey"
        }
      ]
    },
    {
      "name": "Nebula",
      "keys": [
        {
          "name": "C1"
        },
        {
          "name": "C2"
        },
        {
          "name": "C3"
        }
      ]
    }
  ],
  "components": [
    {
      "name": "Broker"
    },
    {
      "name": "Component2"
    }
  ]
}